Meta-repository for Turner et al., 2021
…
**NOTE: ResOpsUS is currently under embargo but will be publically available after November 8, 2021. Once these data are open, the starfit function read_reservoir_data() will allow one to access the data directly using starfit function read_reservoir_data().

read_reservoir_data(
  "https://raw.githubusercontent.com/IMMM-SFA/starfit/master/inst/extdata/",
  # ^^ a placeholder example record is stored at this site pending ResOpsUS public release
  297) ->
  Libby_res_data

Libby_res_data

## # A tibble: 16,861 x 4
##    date       s_MCM i_cumecs r_cumecs
##    <date>     <dbl>    <dbl>    <dbl>
##  1 1974-11-02    NA    103.      620.
##  2 1974-11-03    NA     75.9     623.
##  3 1974-11-04    NA     85.5     623.
##  4 1974-11-05    NA     86.1     493.
##  5 1974-11-06    NA     94.0     428.
##  6 1974-11-07    NA    137.      425.
##  7 1974-11-08    NA     65.7     422.
##  8 1974-11-09    NA    117.      419.
##  9 1974-11-10    NA     87.8     411.
## 10 1974-11-11    NA    135.      419.
## #  with 16,851 more rows
…
# NOR parameters are contained in Libby_fitted_targets:
Libby_fitted_targets

## $id
## [1] 297
## 
## $`weekly storage`
## # A tibble: 1,352 x 3
##     year epiweek s_pct
##    <dbl>   <dbl> <dbl>
##  1  1995       1  47.3
##  2  1995       2  43.6
##  3  1995       3  40.8
##  4  1995       4  38.0
##  5  1995       5  35.0
##  6  1995       6  34.1
##  7  1995       7  33.7
##  8  1995       8  33.6
##  9  1995       9  33.8
## 10  1995      10  33.6
## #  with 1,342 more rows
## 
## $`NSR upper bound`
## [1]  69.485 -20.769 -10.317  79.371  53.736
## 
## $`NSR lower bound`
## [1]  50.647 -38.378  -2.731  63.778  13.631
…
